[
      {
        "id":1,
        "image":"assets/images/image1.jpg",
        "reference":"IBIZA",
        "brand":"Seat"
       },
       {
        "id":2,
        "image":"assets/images/image2.jpg",
        "reference":"Sandero",
        "brand":"Dacia"
       },
       {
        "id":3,
        "image":"assets/images/image3.jpg",
        "reference":"Symbol",
        "brand":"Renault"
       },
       {
        "id":4,
        "image":"assets/images/image4.jpg",
        "reference":"307",
        "brand":"Peugeot"
       }
    ]